simulation/qsim/memoria.msim.vcd
$comment
	File created using the following command:
		vcd file memoria.msim.vcd -direction
$end
$date
	Fri Jul 04 01:28:41 2025
$end
$version
	ModelSim Version 10.1d
$end
$timescale
	1ps
$end
$scope module memoria_4x3_vlg_vec_tst $end
$var reg 2 ! A [1:0] $end
$var reg 1 " CS $end
$var reg 3 # I [2:0] $end
$var reg 1 $ OE $end
$var reg 1 % RD $end
$var wire 1 & O0 $end
$var wire 1 ' O1 $end
$var wire 1 ( O2 $end
$var wire 1 ) sampler $end
$scope module i1 $end
$var wire 1 * gnd $end
$var wire 1 + vcc $end
$var wire 1 , unknown $end
$var tri1 1 - devclrn $end
$var tri1 1 . devpor $end
$var tri1 1 / devoe $end
$var wire 1 0 RD~combout $end
$var wire 1 1 OE~combout $end
$var wire 1 2 CS~combout $end
$var wire 1 3 inst41~0_combout $end
$upscope $end
$upscope $end
$enddefinitions $end
#0
$dumpvars
b0 !
1"
b111 #
1$
1%
x&
x'
x(
x)
0*
1+
x,
1-
1.
1/
10
11
12
x3
$end
#4955
03
#8076
0(
#8223
0&
#8577
0'
#20000
0%
0)
#20852
00
#25742
13
#28863
z(
#29010
z&
#29364
z'
#30000
1%
1)
#30852
10
#35742
03
#38863
0(
#39010
0&
#39364
0'
#60000
b1 !
0)
#80000
0%
1)
#80852
00
#85742
13
#88863
z(
#89010
z&
#89364
z'
#90000
1%
0)
#90852
10
#95742
03
#98863
0(
#99010
0&
#99364
0'
#120000
b11 !
b10 !
1)
#150000
0%
0)
#150852
00
#155742
13
#158863
z(
#159010
z&
#159364
z'
#160000
1%
1)
#160852
10
#165742
03
#168863
0(
#169010
0&
#169364
0'
#180000
b11 !
0)
#210000
0%
1)
#210852
00
#215742
13
#218863
z(
#219010
z&
#219364
z'
#220000
1%
0)
#220852
10
#225742
03
#228863
0(
#229010
0&
#229364
0'
#240000
bx11 #
bx1 #
bx #
b1 !
b0 !
1)
#300000
b1 !
0)
#320000
0"
1)
#320860
02
#325815
13
#328936
z(
#329083
z&
#329437
z'
#340000
1"
0)
#340860
12
#345815
03
#348936
0(
#349083
0&
#349437
0'
#360000
b11 !
b10 !
1)
#420000
b11 !
0)
#450000
0$
1)
#450862
01
#455909
13
#459030
z(
#459177
z&
#459531
z'
#460000
1$
0)
#460862
11
#465909
03
#469030
0(
#469177
0&
#469531
0'
#480000
b0xx #
b0x #
b0 #
b1 !
b0 !
1)
#490000
0%
0)
#490852
00
#495742
13
#498863
z(
#499010
z&
#499364
z'
#500000
1%
1)
#500852
10
#505742
03
#508863
0(
#509010
0&
#509364
0'
#540000
b1 !
0)
#570000
0%
1)
#570852
00
#575742
13
#578863
z(
#579010
z&
#579364
z'
#580000
1%
0)
#580852
10
#585742
03
#588863
0(
#589010
0&
#589364
0'
#600000
b11 !
b10 !
1)
#630000
0%
0)
#630852
00
#635742
13
#638863
z(
#639010
z&
#639364
z'
#640000
1%
1)
#640852
10
#645742
03
#648863
0(
#649010
0&
#649364
0'
#660000
b11 !
0)
#720000
bx00 #
bx0 #
bx #
b1 !
b0 !
1)
#780000
b1 !
0)
#840000
b11 !
b10 !
1)
#900000
b11 !
0)
#960000
b1 !
b0 !
1)
